<?xml version="1.0"?>
<robot name="atlas" xmlns:xacro="http://www.ros.org/wiki/xacro">
  <gazebo reference="l_clav">
    <material>Gazebo/DarkGrey</material>
  </gazebo>
  <gazebo reference="l_farm">
    <material>Gazebo/DarkGrey</material>
  </gazebo>
  <gazebo reference="l_foot">
    <material>Gazebo/DarkGrey</material>
  </gazebo>
  <gazebo reference="l_hand">
    <material>Gazebo/DarkGrey</material>
  </gazebo>
  <gazebo reference="l_larm">
    <material>Gazebo/DarkGrey</material>
  </gazebo>
  <gazebo reference="l_lglut">
    <material>Gazebo/Grey</material>
  </gazebo>
  <gazebo reference="l_lleg">
    <material>Gazebo/DarkGrey</material>
  </gazebo>
  <gazebo reference="l_scap">
    <material>Gazebo/DarkGrey</material>
  </gazebo>
  <gazebo reference="l_talus">
    <material>Gazebo/Grey</material>
  </gazebo>
  <gazebo reference="l_uarm">
    <material>Gazebo/DarkGrey</material>
  </gazebo>
  <gazebo reference="l_uglut">
    <material>Gazebo/Grey</material>
  </gazebo>
  <gazebo reference="l_uleg">
    <material>Gazebo/Grey</material>
  </gazebo>
  <gazebo reference="ltorso">
    <material>Gazebo/DarkGrey</material>
  </gazebo>
  <gazebo reference="mtorso">
    <material>Gazebo/DarkGrey</material>
  </gazebo>
  <gazebo reference="pelvis">
    <material>Gazebo/Grey</material>
  </gazebo>
  <gazebo reference="r_clav">
    <material>Gazebo/DarkGrey</material>
  </gazebo>
  <gazebo reference="r_farm">
    <material>Gazebo/DarkGrey</material>
  </gazebo>
  <gazebo reference="r_foot">
    <material>Gazebo/DarkGrey</material>
  </gazebo>
  <gazebo reference="r_hand">
    <material>Gazebo/DarkGrey</material>
  </gazebo>
  <gazebo reference="r_larm">
    <material>Gazebo/DarkGrey</material>
  </gazebo>
  <gazebo reference="r_lglut">
    <material>Gazebo/Grey</material>
  </gazebo>
  <gazebo reference="r_lleg">
    <material>Gazebo/DarkGrey</material>
  </gazebo>
  <gazebo reference="r_scap">
    <material>Gazebo/DarkGrey</material>
  </gazebo>
  <gazebo reference="r_talus">
    <material>Gazebo/Grey</material>
  </gazebo>
  <gazebo reference="r_uarm">
    <material>Gazebo/DarkGrey</material>
  </gazebo>
  <gazebo reference="r_uglut">
    <material>Gazebo/Grey</material>
  </gazebo>
  <gazebo reference="r_uleg">
    <material>Gazebo/Grey</material>
  </gazebo>
  <gazebo reference="utorso">
    <material>Gazebo/Grey</material>
  </gazebo>

  <gazebo reference="back_bkx">
    <provideFeedback value="true"/>
  </gazebo>
  <gazebo reference="back_bky">
    <provideFeedback value="true"/>
  </gazebo>
  <gazebo reference="back_bkz">
    <provideFeedback value="true"/>
  </gazebo>
  <gazebo reference="neck_ay">
    <provideFeedback value="true"/>
  </gazebo>
  <gazebo reference="l_arm_elx">
    <provideFeedback value="true"/>
  </gazebo>
  <gazebo reference="l_arm_ely">
    <provideFeedback value="true"/>
  </gazebo>
  <gazebo reference="l_arm_shx">
    <provideFeedback value="true"/>
  </gazebo>
  <gazebo reference="l_arm_shz">
    <provideFeedback value="true"/>
  </gazebo>
  <gazebo reference="l_arm_mwx">
    <provideFeedback value="true"/>
  </gazebo>
  <gazebo reference="l_arm_uwy">
    <provideFeedback value="true"/>
  </gazebo>
  <gazebo reference="l_leg_akx">
    <provideFeedback value="true"/>
  </gazebo>
  <gazebo reference="l_leg_aky">
    <provideFeedback value="true"/>
  </gazebo>
  <gazebo reference="l_leg_hpx">
    <provideFeedback value="true"/>
  </gazebo>
  <gazebo reference="l_leg_hpy">
    <provideFeedback value="true"/>
  </gazebo>
  <gazebo reference="l_leg_hpz">
    <provideFeedback value="true"/>
  </gazebo>
  <gazebo reference="l_leg_kny">
    <provideFeedback value="true"/>
  </gazebo>
  <gazebo reference="r_arm_elx">
    <provideFeedback value="true"/>
  </gazebo>
  <gazebo reference="r_arm_ely">
    <provideFeedback value="true"/>
  </gazebo>
  <gazebo reference="r_arm_shx">
    <provideFeedback value="true"/>
  </gazebo>
  <gazebo reference="r_arm_shz">
    <provideFeedback value="true"/>
  </gazebo>
  <gazebo reference="r_arm_mwx">
    <provideFeedback value="true"/>
  </gazebo>
  <gazebo reference="r_arm_uwy">
    <provideFeedback value="true"/>
  </gazebo>
  <gazebo reference="r_leg_akx">
    <provideFeedback value="true"/>
  </gazebo>
  <gazebo reference="r_leg_aky">
    <provideFeedback value="true"/>
  </gazebo>
  <gazebo reference="r_leg_hpx">
    <provideFeedback value="true"/>
  </gazebo>
  <gazebo reference="r_leg_hpy">
    <provideFeedback value="true"/>
  </gazebo>
  <gazebo reference="r_leg_hpz">
    <provideFeedback value="true"/>
  </gazebo>
  <gazebo reference="r_leg_kny">
    <provideFeedback value="true"/>
  </gazebo>
  <gazebo>
    <plugin name="MATECPlugin" filename="libMATECPlugin.so"/>
  </gazebo>
</robot>